\relax 
\providecommand\hyper@newdestlabel[2]{}
\providecommand\HyperFirstAtBeginDocument{\AtBeginDocument}
\HyperFirstAtBeginDocument{\ifx\hyper@anchor\@undefined
\global\let\oldcontentsline\contentsline
\gdef\contentsline#1#2#3#4{\oldcontentsline{#1}{#2}{#3}}
\global\let\oldnewlabel\newlabel
\gdef\newlabel#1#2{\newlabelxx{#1}#2}
\gdef\newlabelxx#1#2#3#4#5#6{\oldnewlabel{#1}{{#2}{#3}}}
\AtEndDocument{\ifx\hyper@anchor\@undefined
\let\contentsline\oldcontentsline
\let\newlabel\oldnewlabel
\fi}
\fi}
\global\let\hyper@last\relax 
\gdef\HyperFirstAtBeginDocument#1{#1}
\providecommand\HyField@AuxAddToFields[1]{}
\providecommand\HyField@AuxAddToCoFields[2]{}
\select@language{english}
\@writefile{toc}{\select@language{english}}
\@writefile{lof}{\select@language{english}}
\@writefile{lot}{\select@language{english}}
\@writefile{toc}{\contentsline {section}{1. Introduction}{1}{section*.3}}
\@writefile{toc}{\contentsline {subsection}{1.1 The study organism}{1}{section*.4}}
\@writefile{toc}{\contentsline {subsection}{1.2 Tropical insect seasonality and parasitoid activity}{3}{section*.5}}
\@writefile{toc}{\contentsline {subsection}{1.3 Altitudinal richness patterns}{5}{section*.6}}
\@writefile{toc}{\contentsline {subsection}{1.4 Insect diversity and conservation of tropical Andes}{7}{section*.7}}
\@writefile{toc}{\contentsline {subsection}{1.5 Aim of the study}{8}{section*.8}}
\@writefile{toc}{\contentsline {subsection}{1.6 Questions of the study}{8}{section*.9}}
\@writefile{toc}{\contentsline {section}{2. Materials and methods}{9}{section*.10}}
\@writefile{toc}{\contentsline {subsection}{2.1. Study area and data}{9}{section*.11}}
\newlabel{RF1}{10}
\@writefile{lot}{\contentsline {table}{\numberline {1}{\ignorespaces Malaise traps coordinates and sampling effort by locality and time along the altitudinal gradient of the Kos\IeC {\~n}ipata valley\relax }}{10}{table.caption.12}}
\@writefile{toc}{\contentsline {subsection}{2.2 Sampling}{11}{section*.13}}
\@writefile{toc}{\contentsline {subsection}{2.3 Analysis}{11}{section*.14}}
\@writefile{toc}{\contentsline {section}{3. Results}{13}{section*.15}}
\@writefile{lof}{\contentsline {figure}{\numberline {1}{\ignorespaces Species accumulation curves (straight line) showing their 95\% CI and behavior of richness estimators based on Malaise trap sampling effort at each sampled altitude in the Kos\IeC {\~n}ipata valley. Chao2, dotted line; Jack2, dashed line.\relax }}{13}{figure.caption.20}}
\@writefile{toc}{\contentsline {subsection}{3.1 Altitudinal variation}{13}{section*.21}}
\@writefile{lot}{\contentsline {table}{\numberline {2}{\ignorespaces Abundance of the Pimplinae species and morphospecies collected at the four sampling points through the altitudinal gradient of the Kos\IeC {\~n}ipata valley.\relax }}{16}{table.caption.18}}
\@writefile{lot}{\contentsline {table}{\numberline {3}{\ignorespaces Number of species observed, abundances, singletons and richness estimations at different altitudes in the Kos\IeC {\~n}ipata valley.\relax }}{17}{table.caption.19}}
\@writefile{lof}{\contentsline {figure}{\numberline {2}{\ignorespaces Altitudinal patterns of richness (a) and abundance (b) at different sampling times. The sampling of July and September are drawn in symbols instead of lines to show the absence of sampling at 2000 at that time.\relax }}{18}{figure.caption.22}}
\@writefile{lof}{\contentsline {figure}{\numberline {3}{\ignorespaces Rarefaction curves at four altitudes. In dash line the 95\% CI of the 1500 m a.s.l. curve.\relax }}{19}{figure.caption.23}}
\@writefile{toc}{\contentsline {subsection}{3.2 Temporal variation}{19}{section*.25}}
\@writefile{lof}{\contentsline {figure}{\numberline {4}{\ignorespaces NMDS ordenation diagram showing the changes of species composition through the altitudinal gradient. Each circle represent a malaise trap per month and the size correspond to the altitude, smaller to lowest and largest to highest elevation.\relax }}{20}{figure.caption.24}}
\@writefile{lof}{\contentsline {figure}{\numberline {5}{\ignorespaces Temporal pattern of richness and abundance at 1500 and 2800 m a.s.l.\relax }}{21}{figure.caption.26}}
\@writefile{toc}{\contentsline {section}{4. Discussion}{22}{section*.27}}
\@writefile{toc}{\contentsline {subsection}{4.1 Altitudinal patterns}{22}{section*.28}}
\@writefile{toc}{\contentsline {subsection}{4.2 Temporal patterns}{25}{section*.29}}
\@writefile{lof}{\contentsline {figure}{\numberline {6}{\ignorespaces Average monthly of humidity, PAR, temperature and precipitation from July 2007 to January 2008 published in Merkord (2010)\relax }}{26}{figure.caption.30}}
\@writefile{toc}{\contentsline {section}{5. Bibliograhy}{29}{section*.31}}
\@writefile{toc}{\contentsline {section}{6. Appendix}{36}{section*.32}}
